proj_3/project_benches/proj_3/sim/run.log
QuestaSim qrun 2023.4 Utility 2023.10 Oct  9 2023
Start time: 19:19:11 on Apr 01,2024
qrun -64 -gui -visualizer -onfinish stop -classdebug -uvmcontrol=all -msgmode both -permit_unmatched_virtual_intf -l run.log -f lab1_filelist.f -sv_seed 123456 -msglimit error -msglimitcount 20 -do "set IterationLimit 140000; set NoQuitOnFinish 1; coverage attribute -name TESTNAME -value test_top; coverage save -onexit test_top.ucdb; do wave.do" -debug,livesim -qwavedb=+signal+memory=1024+report+parameter+class+assertion+uvm_schematic+msg+classmemory=1024+statictaskfunc -top top -covermultiuserenv -designfile design.bin 
QuestaSim-64 vlog 2023.4 Compiler 2023.10 Oct  9 2023
Start time: 19:19:11 on Apr 01,2024
vlog -msglimit error -msglimitcount 20 -covermultiuserenv ../../../verification_ip/interface_packages/i2c_pkg/src/i2c_if.sv ../../../verification_ip/interface_packages/wb_pkg/src/wb_if.sv ../../../verification_ip/ncsu_pkg/ncsu_pkg.sv ../../../verification_ip/interface_packages/wb_pkg/wb_pkg.sv ../../../verification_ip/interface_packages/i2c_pkg/i2c_pkg.sv ../../../verification_ip/interface_packages/environment_packages/i2cmb_env_pkg/i2cmb_env_pkg.sv ../testbench/top.sv -work qrun.out/work -statslog qrun.out/stats_log -writesessionid "+qrun.out/top_dus" -csession=incr -csessionid=0 
-- Skipping ../../../verification_ip/interface_packages/i2c_pkg/src/i2c_if.sv
-- Skipping ../../../verification_ip/interface_packages/wb_pkg/src/wb_if.sv
-- Skipping ../../../verification_ip/ncsu_pkg/ncsu_pkg.sv
-- Compiling package wb_pkg
-- Importing package ncsu_pkg
-- Skipping ../../../verification_ip/interface_packages/i2c_pkg/i2c_pkg.sv
-- Compiling package i2cmb_env_pkg
-- Importing package i2c_pkg
-- Importing package wb_pkg
-- Compiling module top
-- Importing package i2cmb_env_pkg

Top level modules:
	top
End time: 19:19:12 on Apr 01,2024, Elapsed time: 0:00:01
Errors: 0, Warnings: 0
-- Skipping 'vcom -64 -msglimit error -msglimitcount 20 -covermultiuseren...'
QuestaSim-64 vopt 2023.4 Compiler 2023.10 Oct  9 2023
Start time: 19:19:13 on Apr 01,2024
vopt -msglimit error -msglimitcount 20 -debug,livesim -designfile design.bin top -work qrun.out/work -statslog qrun.out/stats_log -o qrun_opt -csession=incr -csessionid=2 

Top level modules:
	top

Analyzing design...
-- Loading module top
-- Importing package ncsu_pkg
-- Importing package wb_pkg
-- Importing package i2c_pkg
-- Importing package i2cmb_env_pkg
-- Loading interface wb_if
-- Loading interface i2c_if
-- Loading package STANDARD
-- Loading package TEXTIO
-- Loading package std_logic_1164
-- Loading entity iicmb_m_wb
-- Loading architecture str of iicmb_m_wb
-- Loading entity wishbone
-- Loading package NUMERIC_STD
-- Loading package iicmb_pkg
-- Loading entity regblock
-- Loading package iicmb_int_pkg
-- Loading entity iicmb_m
-- Loading architecture rtl of wishbone
-- Loading architecture rtl of regblock
-- Loading package body iicmb_pkg
-- Loading architecture str of iicmb_m
-- Loading entity mbyte
-- Loading entity mbit
-- Loading entity conditioner_mux
-- Loading package body iicmb_int_pkg
-- Loading architecture rtl of mbyte
-- Loading architecture rtl of mbit
-- Loading architecture str of conditioner_mux
-- Loading entity conditioner
-- Loading architecture str of conditioner
-- Loading entity filter
-- Loading entity bus_state
-- Loading architecture rtl of filter
-- Loading architecture rtl of bus_state
Incremental compilation check found 20 design-units (out of 23) may be reused.
Optimizing 3 design-units (inlining 2/3 module instances, 9/11 architecture instances):
-- Optimizing package wb_pkg(fast)
-- Optimizing package i2cmb_env_pkg(fast)
-- Inlining interface wb_if(fast__2)
-- Inlining interface i2c_if(fast__2)
-- Optimizing module top(fast)
viscom:
VISCOM: Start time: 19:19:16 on Apr 01,2024

VISCOM: QuestaSim /mnt/apps/public/COE/mg_apps/questa2023.4/questasim/linux/../linux_x86_64/VisualizerRls/bin/viscom 2023.4 at 2023.10 Oct  9 2023
VISCOM: Writing design.bin
VISCOM: Done writing design.bin
VISCOM: End time: 19:19:17 on Apr 01,2024, Elapsed time: 0:00:01 (Process Size : 380MB, Peak Process Size : 381MB)


Optimized design name is qrun_opt
End time: 19:19:17 on Apr 01,2024, Elapsed time: 0:00:04
Errors: 0, Warnings: 0
# VISUALIZERROOT = '/mnt/apps/public/COE/mg_apps/questa2023.4/questasim/linux_x86_64/VisualizerRls'
# USER = 'sreyya'
# Mentor Graphics software version 2023.4 (Build on Oct  9 2023)
# Copyright (C) 1999-2024 by Mentor Graphics All rights reserved.

# vsim -64 -onfinish stop -classdebug -uvmcontrol=all -msgmode both -permit_unmatched_virtual_intf -sv_seed 123456 -msglimit error -msglimitcount 20 -qwavedb=+signal+memory=1024+report+parameter+class+assertion+uvm_schematic+msg+classmemory=1024+statictaskfunc -lib qrun.out/work -visualizer=design.bin -do {set IterationLimit 140000; set NoQuitOnFinish 1; coverage attribute -name TESTNAME -value test_top; coverage save -onexit test_top.ucdb; do wave.do} -statslog qrun.out/stats_log qrun_opt -appendlog -l run.log -csession=incr -csessionid=3
# vsim -64 -onfinish stop -classdebug -uvmcontrol=all -msgmode both -permit_unmatched_virtual_intf -sv_seed 123456 -msglimit error -msglimitcount 20 -qwavedb=+livesim+signal+memory=1024+report+parameter+class+assertion+uvm_schematic+msg+classmemory=1024+statictaskfunc -lib qrun.out/work -visualizer=design.bin -statslog qrun.out/stats_log qrun_opt -appendlog -csession=incr -csessionid=3 "+no_qwavedb_threading" 
# Start time: 19:19:41 on Apr 01,2024
# Loading Mentor Graphics Visualizer shared object '/mnt/apps/public/COE/mg_apps/questa2023.4/questasim/bin/../linux_x86_64/VisualizerRls/bin/libqvisualizer.so'

# Initiating qwavedb class logging


# Done initiating qwavedb class logging
# //  Questa Sim-64
# //  Version 2023.4 linux_x86_64 Oct  9 2023
# //
# //  Copyright 1991-2023 Mentor Graphics Corporation
# //  All Rights Reserved.
# //
# //  QuestaSim and its associated documentation contain trade
# //  secrets and commercial or financial information that are the property of
# //  Mentor Graphics Corporation and are privileged, confidential,
# //  and exempt from disclosure under the Freedom of Information Act,
# //  5 U.S.C. Section 552. Furthermore, this information
# //  is prohibited from disclosure under the Trade Secrets Act,
# //  18 U.S.C. Section 1905.
# //
# Loading sv_std.std
# Loading work.wb_if(fast)
# Loading work.i2c_if(fast)
# Loading work.ncsu_pkg(fast)
# Loading work.wb_pkg(fast)
# Loading work.i2c_pkg(fast)
# Loading work.i2cmb_env_pkg(fast)
# Loading work.top(fast)
# Loading std.standard
# Loading std.textio(body)
# Loading ieee.std_logic_1164(body)
# Loading ieee.numeric_std(body)
# Loading work.iicmb_pkg(body)
# Loading work.iicmb_m_wb(str)#1
# Loading work.iicmb_int_pkg(body)
# Loading work.iicmb_m(str)#1

# 19:19:47: Loading design data...
# 19:19:47: Loaded  design units
# 19:19:47: Loaded  design hierarchy
# Warning: The wave file cannot be loaded because either the simulation has not yet logged any data, or qwavedb logging has not been enabled.
# set IterationLimit 140000
# 140000
# set NoQuitOnFinish 1
# 1
# coverage attribute -name TESTNAME -value test_top

# coverage save -onexit test_top.ucdb

# do wave.do
# 19:19:53: Loading waveform header...
# 19:19:53: Loaded  waveform header
#   Error: Unable to wave top.NUM_I2C_BUSSES.
#   Error: Unable to wave top.sda[0].
# 
# *****************************************************************
#    Using QuickLZ compression software.
# *****************************************************************
# 
# Static tasks and functions will be logged.
# Qwave threading will not be used.
# 	Arrays of 1 unpacked dimension inside classes will be logged if they have 1024 or fewer elements
# qwavedb_dumpvars: Initiating qwavedb class logging
# 
# 	Loading class filter file '/mnt/apps/public/COE/mg_apps/questa2023.4/questasim/bin/../linux_x86_64/VisualizerRls/bin/../config/uvmclassfilter.txt'
# 
# qwavedb_dumpvars: Done initiating qwavedb class logging
# Mentor Graphics software version 2023.4 (Build number 0)
# Copyright (C) 1999-2024 by Mentor Graphics All rights reserved.
# 	 Class Filter File used = /mnt/apps/public/COE/mg_apps/questa2023.4/questasim/bin/../linux_x86_64/VisualizerRls/bin/../config/uvmclassfilter.txt
# qwavedb_dumpvars: Initiating qwavedb waveform capturing
# 
# 	Arrays of 1 unpacked dimension will be logged if they have 1024 or fewer elements
# QWAVEDB:  logging of additional nested aggregates (UPA of UPS of UPA) is enabled.
# 
# qwavedb_dumpvars: Done initiating qwavedb waveform capturing
# 

# ----------------------------------------------------------------
# //  NCSU Package 
# //  Version 1.0a
# ----------------------------------------------------------------
# 
# 
# NCSU_INFO:Time                    0:ncsu_component::build():  of tst.env.agent_wb.driver called
# NCSU_INFO:Time                    0:ncsu_component::build():  of tst.env.agent_wb.monitor called
# NCSU_INFO:Time                    0:ncsu_component::build():  of tst.env.agent_i2c.driver called
# NCSU_INFO:Time                    0:ncsu_component::build():  of tst.env.agent_i2c.monitor called
# NCSU_INFO:Time                    0:ncsu_component::build():  of tst.env.pred called
# NCSU_INFO:Time                    0:ncsu_component::build():  of tst.env.scbd called
# ****************************************** Writing from 0 to 31 ******************************************
# tst.env.scbd nb_transport: Expected transaction name: i2c_transaction transaction_count: 1 address:0x22 data:0x'{31, 30, 29, 28, 27, 26, 25, 24, 23, 22, 21, 20, 19, 18, 17, 16, 15, 14, 13, 12, 11, 10, 9, 8, 7, 6, 5, 4, 3, 2, 1, 0} op:0x0
# tst.env.scbd nb_put: Actual transaction name: monitored_trans transaction_count: 4 address:0x22 data:0x'{31, 30, 29, 28, 27, 26, 25, 24, 23, 22, 21, 20, 19, 18, 17, 16, 15, 14, 13, 12, 11, 10, 9, 8, 7, 6, 5, 4, 3, 2, 1, 0} op:0x0
# tst.env.scbd i2c_transaction MATCH!
# ******************************************Reading values from 100 to 131******************************************
# tst.env.scbd nb_transport: Expected transaction name: i2c_transaction transaction_count: 1 address:0x22 data:0x'{131, 130, 129, 128, 127, 126, 125, 124, 123, 122, 121, 120, 119, 118, 117, 116, 115, 114, 113, 112, 111, 110, 109, 108, 107, 106, 105, 104, 103, 102, 101, 100} op:0x1
# tst.env.scbd nb_put: Actual transaction name: monitored_trans transaction_count: 100043 address:0x22 data:0x'{131, 130, 129, 128, 127, 126, 125, 124, 123, 122, 121, 120, 119, 118, 117, 116, 115, 114, 113, 112, 111, 110, 109, 108, 107, 106, 105, 104, 103, 102, 101, 100} op:0x1
# tst.env.scbd i2c_transaction MATCH!
# ******************************************Alternate Read and Write******************************************
# tst.env.scbd nb_transport: Expected transaction name: i2c_transaction transaction_count: 1 address:0x22 data:0x'{64} op:0x0
# tst.env.scbd nb_put: Actual transaction name: monitored_trans transaction_count: 199391 address:0x22 data:0x'{64} op:0x0
# tst.env.scbd i2c_transaction MATCH!
# tst.env.scbd nb_transport: Expected transaction name: i2c_transaction transaction_count: 1 address:0x22 data:0x'{63} op:0x1
# tst.env.scbd nb_put: Actual transaction name: monitored_trans transaction_count: 206454 address:0x22 data:0x'{63} op:0x1
# tst.env.scbd i2c_transaction MATCH!
# tst.env.scbd nb_transport: Expected transaction name: i2c_transaction transaction_count: 1 address:0x22 data:0x'{65} op:0x0
# tst.env.scbd nb_put: Actual transaction name: monitored_trans transaction_count: 212523 address:0x22 data:0x'{65} op:0x0
# tst.env.scbd i2c_transaction MATCH!
# tst.env.scbd nb_transport: Expected transaction name: i2c_transaction transaction_count: 1 address:0x22 data:0x'{62} op:0x1
# tst.env.scbd nb_put: Actual transaction name: monitored_trans transaction_count: 219476 address:0x22 data:0x'{62} op:0x1
# tst.env.scbd i2c_transaction MATCH!
# tst.env.scbd nb_transport: Expected transaction name: i2c_transaction transaction_count: 1 address:0x22 data:0x'{66} op:0x0
# tst.env.scbd nb_put: Actual transaction name: monitored_trans transaction_count: 225545 address:0x22 data:0x'{66} op:0x0
# tst.env.scbd i2c_transaction MATCH!
# tst.env.scbd nb_transport: Expected transaction name: i2c_transaction transaction_count: 1 address:0x22 data:0x'{61} op:0x1
# tst.env.scbd nb_put: Actual transaction name: monitored_trans transaction_count: 232498 address:0x22 data:0x'{61} op:0x1
# tst.env.scbd i2c_transaction MATCH!
# tst.env.scbd nb_transport: Expected transaction name: i2c_transaction transaction_count: 1 address:0x22 data:0x'{67} op:0x0
# tst.env.scbd nb_put: Actual transaction name: monitored_trans transaction_count: 238567 address:0x22 data:0x'{67} op:0x0
# tst.env.scbd i2c_transaction MATCH!
# tst.env.scbd nb_transport: Expected transaction name: i2c_transaction transaction_count: 1 address:0x22 data:0x'{60} op:0x1
# tst.env.scbd nb_put: Actual transaction name: monitored_trans transaction_count: 245520 address:0x22 data:0x'{60} op:0x1
# tst.env.scbd i2c_transaction MATCH!
# tst.env.scbd nb_transport: Expected transaction name: i2c_transaction transaction_count: 1 address:0x22 data:0x'{68} op:0x0
# tst.env.scbd nb_put: Actual transaction name: monitored_trans transaction_count: 251589 address:0x22 data:0x'{68} op:0x0
# tst.env.scbd i2c_transaction MATCH!
# tst.env.scbd nb_transport: Expected transaction name: i2c_transaction transaction_count: 1 address:0x22 data:0x'{59} op:0x1
# tst.env.scbd nb_put: Actual transaction name: monitored_trans transaction_count: 258542 address:0x22 data:0x'{59} op:0x1
# tst.env.scbd i2c_transaction MATCH!
# tst.env.scbd nb_transport: Expected transaction name: i2c_transaction transaction_count: 1 address:0x22 data:0x'{69} op:0x0
# tst.env.scbd nb_put: Actual transaction name: monitored_trans transaction_count: 264611 address:0x22 data:0x'{69} op:0x0
# tst.env.scbd i2c_transaction MATCH!
# tst.env.scbd nb_transport: Expected transaction name: i2c_transaction transaction_count: 1 address:0x22 data:0x'{58} op:0x1
# tst.env.scbd nb_put: Actual transaction name: monitored_trans transaction_count: 271564 address:0x22 data:0x'{58} op:0x1
# tst.env.scbd i2c_transaction MATCH!
# tst.env.scbd nb_transport: Expected transaction name: i2c_transaction transaction_count: 1 address:0x22 data:0x'{70} op:0x0
# tst.env.scbd nb_put: Actual transaction name: monitored_trans transaction_count: 277633 address:0x22 data:0x'{70} op:0x0
# tst.env.scbd i2c_transaction MATCH!
# tst.env.scbd nb_transport: Expected transaction name: i2c_transaction transaction_count: 1 address:0x22 data:0x'{57} op:0x1
# tst.env.scbd nb_put: Actual transaction name: monitored_trans transaction_count: 284586 address:0x22 data:0x'{57} op:0x1
# tst.env.scbd i2c_transaction MATCH!
# tst.env.scbd nb_transport: Expected transaction name: i2c_transaction transaction_count: 1 address:0x22 data:0x'{71} op:0x0
# tst.env.scbd nb_put: Actual transaction name: monitored_trans transaction_count: 290655 address:0x22 data:0x'{71} op:0x0
# tst.env.scbd i2c_transaction MATCH!

# stop -sync -abort

# tst.env.scbd nb_transport: Expected transaction name: i2c_transaction transaction_count: 1 address:0x22 data:0x'{56} op:0x1
# tst.env.scbd nb_put: Actual transaction name: monitored_trans transaction_count: 297608 address:0x22 data:0x'{56} op:0x1
# tst.env.scbd i2c_transaction MATCH!
# Window layout 'Default' saved in file: /mnt/ncsudrive/s/sreyya/.visualizer/layout.xml
# Saving coverage database on exit...
# qwavedb_dumpvars : Simulation ending at [0 1839273000] 0
# ========= Visualizer Dump Summary report =========
# 	 #Design Ids       = 165
# 	 #Assertion Ids    = 3
# 	 #Class Ids        = 370 (Recycled = 0)
# 	 #Message Ids      = 1
# 	 #Total Ids        = 544
# 	 #Swaps            = 20
# 	  Id Memory        = 52.22 KB
# 	  Swap Memory      = 50.00 MB
# ========= End of Visualizer Dump Summary report =========
# End time: 19:20:46 on Apr 01,2024, Elapsed time: 0:01:05
# Errors: 0, Warnings: 0
# *** Summary *********************************************
#     qrun: Errors:   0, Warnings:   0
#     vlog: Errors:   0, Warnings:   0
#     vopt: Errors:   0, Warnings:   0
#     vsim: Errors:   0, Warnings:   0
#   Totals: Errors:   0, Warnings:   0
# Start  : Mon 01 Apr 2024 07:19:23 PM EDT
# End    : Mon 01 Apr 2024 07:20:46 PM EDT
# VMSize : 1476252 kB
# VMPeak : 1604776 kB
